{
    "name": "GameAction",
    "maps": [
        {
            "name": "UI",
            "id": "da15a962-7329-47fe-a289-e81ee7550723",
            "actions": [
                {
                    "name": "ESC",
                    "type": "Button",
                    "id": "bb274906-b741-4a1e-be76-b8acd8a4b291",
                    "expectedControlType": "Button",
                    "processors": "",
                    "interactions": "",
                    "initialStateCheck": false
                }
            ],
            "bindings": [
                {
                    "name": "",
                    "id": "3d8b5ecf-0044-4e2b-9b13-5ef34f305c4d",
                    "path": "<Keyboard>/escape",
                    "interactions": "",
                    "processors": "",
                    "groups": "",
                    "action": "ESC",
                    "isComposite": false,
                    "isPartOfComposite": false
                }
            ]
        }
    ],
    "controlSchemes": []
}