%YAML 1.1
%TAG !u! tag:unity3d.com,2011:
--- !u!1045 &1
EditorBuildSettings:
  m_ObjectHideFlags: 0
  serializedVersion: 2
  m_Scenes:
  - enabled: 1
    path: Assets/Scenes/MenuSene.unity
    guid: f6da90d19cde19c48810159352cfea25
  - enabled: 1
    path: Assets/Scenes/LoadingScene.unity
    guid: cb6d15d5ced9d3a4b981b50dc8ac2649
  - enabled: 1
    path: Assets/Scenes/GameScene.unity
    guid: 2cda990e2423bbf4892e6590ba056729
  - enabled: 1
    path: Assets/Scenes/MulitScene.unity
    guid: 45424afab03b2e3459bf96e757d1c9cf
  m_configObjects: {}
